test_run_dir/allTests_should_pass/GPIO.vcd
$version Generated by VerilatedVcd $end
$timescale 1ps $end
 $scope module TOP $end
  $var wire 1 8! clock $end
  $var wire 1 9! reset $end
  $var wire 1 :! io_apb_PSEL $end
  $var wire 1 ;! io_apb_PENABLE $end
  $var wire 1 <! io_apb_PWRITE $end
  $var wire 8 =! io_apb_PADDR [7:0] $end
  $var wire 16 >! io_apb_PWDATA [15:0] $end
  $var wire 16 ?! io_apb_PRDATA [15:0] $end
  $var wire 1 @! io_apb_PREADY $end
  $var wire 1 A! io_apb_PSLVERR $end
  $var wire 16 B! io_pins_gpioInput [15:0] $end
  $var wire 16 C! io_pins_gpioOutput [15:0] $end
  $var wire 16 D! io_pins_gpioOutputEnable [15:0] $end
  $var wire 1 E! io_pins_irqOutput $end
  $scope module GPIO $end
   $var wire 1 8! clock $end
   $var wire 1 9! reset $end
   $var wire 1 :! io_apb_PSEL $end
   $var wire 1 ;! io_apb_PENABLE $end
   $var wire 1 <! io_apb_PWRITE $end
   $var wire 8 =! io_apb_PADDR [7:0] $end
   $var wire 16 >! io_apb_PWDATA [15:0] $end
   $var wire 16 ?! io_apb_PRDATA [15:0] $end
   $var wire 1 @! io_apb_PREADY $end
   $var wire 1 A! io_apb_PSLVERR $end
   $var wire 16 B! io_pins_gpioInput [15:0] $end
   $var wire 16 C! io_pins_gpioOutput [15:0] $end
   $var wire 16 D! io_pins_gpioOutputEnable [15:0] $end
   $var wire 1 E! io_pins_irqOutput $end
   $var wire 16 # regs_DIRECTION [15:0] $end
   $var wire 16 $ regs_OUTPUT [15:0] $end
   $var wire 16 % regs_INPUT [15:0] $end
   $var wire 16 & regs_MODE [15:0] $end
   $var wire 4 ' regs_ATOMIC_OPERATION [3:0] $end
   $var wire 16 ( regs_ATOMIC_MASK [15:0] $end
   $var wire 1 ) regs_ATOMIC_SET $end
   $var wire 8 * regs_virtualPortOutput [7:0] $end
   $var wire 5 + regs_virtualToPhysicalMap_0 [4:0] $end
   $var wire 5 , regs_virtualToPhysicalMap_1 [4:0] $end
   $var wire 5 - regs_virtualToPhysicalMap_2 [4:0] $end
   $var wire 5 . regs_virtualToPhysicalMap_3 [4:0] $end
   $var wire 5 / regs_virtualToPhysicalMap_4 [4:0] $end
   $var wire 5 0 regs_virtualToPhysicalMap_5 [4:0] $end
   $var wire 5 1 regs_virtualToPhysicalMap_6 [4:0] $end
   $var wire 5 2 regs_virtualToPhysicalMap_7 [4:0] $end
   $var wire 1 3 regs_virtualPortEnable $end
   $var wire 16 4 regs_TRIGGER_TYPE [15:0] $end
   $var wire 16 5 regs_TRIGGER_LO [15:0] $end
   $var wire 16 6 regs_TRIGGER_HI [15:0] $end
   $var wire 16 7 regs_TRIGGER_STATUS [15:0] $end
   $var wire 16 8 regs_IRQ_ENABLE [15:0] $end
   $var wire 16 9 gpioInputSyncPrev [15:0] $end
   $var wire 16 : gpioInputSync_REG [15:0] $end
   $var wire 16 ; gpioInputSync [15:0] $end
   $var wire 8 =! shiftAddr [7:0] $end
   $var wire 8 F! shiftAddr_2 [7:0] $end
   $var wire 8 G! shiftAddr_3 [7:0] $end
   $var wire 8 H! shiftAddr_4 [7:0] $end
   $var wire 8 I! shiftAddr_5 [7:0] $end
   $var wire 8 J! shiftAddr_6 [7:0] $end
   $var wire 8 K! index [7:0] $end
   $var wire 8 L! shiftAddr_7 [7:0] $end
   $var wire 8 M! shiftAddr_8 [7:0] $end
   $var wire 8 N! shiftAddr_9 [7:0] $end
   $var wire 8 O! shiftAddr_10 [7:0] $end
   $var wire 8 P! shiftAddr_11 [7:0] $end
   $var wire 8 Q! shiftAddr_13 [7:0] $end
   $var wire 3 < condition [2:0] $end
   $var wire 1 = triggerStatusVec_0 $end
   $var wire 3 > condition_1 [2:0] $end
   $var wire 1 ? triggerStatusVec_1 $end
   $var wire 3 @ condition_2 [2:0] $end
   $var wire 1 A triggerStatusVec_2 $end
   $var wire 3 B condition_3 [2:0] $end
   $var wire 1 C triggerStatusVec_3 $end
   $var wire 3 D condition_4 [2:0] $end
   $var wire 1 E triggerStatusVec_4 $end
   $var wire 3 F condition_5 [2:0] $end
   $var wire 1 G triggerStatusVec_5 $end
   $var wire 3 H condition_6 [2:0] $end
   $var wire 1 I triggerStatusVec_6 $end
   $var wire 3 J condition_7 [2:0] $end
   $var wire 1 K triggerStatusVec_7 $end
   $var wire 3 L condition_8 [2:0] $end
   $var wire 1 M triggerStatusVec_8 $end
   $var wire 3 N condition_9 [2:0] $end
   $var wire 1 O triggerStatusVec_9 $end
   $var wire 3 P condition_10 [2:0] $end
   $var wire 1 Q triggerStatusVec_10 $end
   $var wire 3 R condition_11 [2:0] $end
   $var wire 1 S triggerStatusVec_11 $end
   $var wire 3 T condition_12 [2:0] $end
   $var wire 1 U triggerStatusVec_12 $end
   $var wire 3 V condition_13 [2:0] $end
   $var wire 1 W triggerStatusVec_13 $end
   $var wire 3 X condition_14 [2:0] $end
   $var wire 1 Y triggerStatusVec_14 $end
   $var wire 3 Z condition_15 [2:0] $end
   $var wire 1 [ triggerStatusVec_15 $end
   $var wire 8 \ TRIGGER_STATUS_lo [7:0] $end
   $var wire 1 ] atomicOperationTruthTable_0_0 $end
   $var wire 1 ^ atomicOperationTruthTable_0_1 $end
   $var wire 1 _ atomicOperationTruthTable_1_0 $end
   $var wire 1 ` atomicOperationTruthTable_1_1 $end
   $var wire 1 a output_inner_0 $end
   $var wire 1 b output_inner_1 $end
   $var wire 1 c output_inner_2 $end
   $var wire 1 d output_inner_3 $end
   $var wire 1 e output_inner_4 $end
   $var wire 1 f output_inner_5 $end
   $var wire 1 g output_inner_6 $end
   $var wire 1 h output_inner_7 $end
   $var wire 1 i output_inner_8 $end
   $var wire 1 j output_inner_9 $end
   $var wire 1 k output_inner_10 $end
   $var wire 1 l output_inner_11 $end
   $var wire 1 m output_inner_12 $end
   $var wire 1 n output_inner_13 $end
   $var wire 1 o output_inner_14 $end
   $var wire 1 p output_inner_15 $end
   $var wire 8 q OUTPUT_lo [7:0] $end
   $var wire 1 r gpioOutputVec_15 $end
   $var wire 1 s gpioOutputEnableVec_15 $end
   $var wire 1 t gpioOutputVec_14 $end
   $var wire 1 u gpioOutputEnableVec_14 $end
   $var wire 1 v gpioOutputVec_13 $end
   $var wire 1 w gpioOutputEnableVec_13 $end
   $var wire 1 x gpioOutputVec_12 $end
   $var wire 1 y gpioOutputEnableVec_12 $end
   $var wire 1 z gpioOutputVec_11 $end
   $var wire 1 { gpioOutputEnableVec_11 $end
   $var wire 1 | gpioOutputVec_10 $end
   $var wire 1 } gpioOutputEnableVec_10 $end
   $var wire 1 ~ gpioOutputVec_9 $end
   $var wire 1 !! gpioOutputEnableVec_9 $end
   $var wire 1 "! gpioOutputVec_8 $end
   $var wire 1 #! gpioOutputEnableVec_8 $end
   $var wire 1 $! gpioOutputVec_7 $end
   $var wire 1 %! gpioOutputEnableVec_7 $end
   $var wire 1 &! gpioOutputVec_6 $end
   $var wire 1 '! gpioOutputEnableVec_6 $end
   $var wire 1 (! gpioOutputVec_5 $end
   $var wire 1 )! gpioOutputEnableVec_5 $end
   $var wire 1 *! gpioOutputVec_4 $end
   $var wire 1 +! gpioOutputEnableVec_4 $end
   $var wire 1 ,! gpioOutputVec_3 $end
   $var wire 1 -! gpioOutputEnableVec_3 $end
   $var wire 1 .! gpioOutputVec_2 $end
   $var wire 1 /! gpioOutputEnableVec_2 $end
   $var wire 1 0! gpioOutputVec_1 $end
   $var wire 1 1! gpioOutputEnableVec_1 $end
   $var wire 1 2! gpioOutputVec_0 $end
   $var wire 1 3! gpioOutputEnableVec_0 $end
   $var wire 8 4! io_pins_gpioOutput_lo [7:0] $end
   $var wire 8 5! io_pins_gpioOutput_hi [7:0] $end
   $var wire 8 6! io_pins_gpioOutputEnable_lo [7:0] $end
   $var wire 8 7! io_pins_gpioOutputEnable_hi [7:0] $end
  $upscope $end
 $upscope $end
$enddefinitions $end


#0
b0000000000000000 #
b0000000000000000 $
b0000000000000000 %
b0000000000000000 &
b0000 '
b0000000000000000 (
0)
b00000000 *
b00000 +
b00000 ,
b00000 -
b00000 .
b00000 /
b00000 0
b00000 1
b00000 2
03
b0000000000000000 4
b0000000000000000 5
b0000000000000000 6
b0000000000000000 7
b0000000000000000 8
b0000000000000000 9
b0000000000000000 :
b0000000000000000 ;
b000 <
0=
b000 >
0?
b000 @
0A
b000 B
0C
b000 D
0E
b000 F
0G
b000 H
0I
b000 J
0K
b000 L
0M
b000 N
0O
b000 P
0Q
b000 R
0S
b000 T
0U
b000 V
0W
b000 X
0Y
b000 Z
0[
b00000000 \
0]
0^
0_
0`
0a
0b
0c
0d
0e
0f
0g
0h
0i
0j
0k
0l
0m
0n
0o
0p
b00000000 q
0r
0s
0t
0u
0v
0w
0x
0y
0z
0{
0|
0}
0~
0!!
0"!
0#!
0$!
0%!
0&!
0'!
0(!
0)!
0*!
0+!
0,!
0-!
0.!
0/!
00!
01!
02!
03!
b00000000 4!
b00000000 5!
b00000000 6!
b00000000 7!
08!
19!
0:!
0;!
0<!
b00000000 =!
b0000000000000000 >!
b0000000000000000 ?!
0@!
0A!
b0000000000000000 B!
b0000000000000000 C!
b0000000000000000 D!
0E!
b11111110 F!
b11111010 G!
b11111000 H!
b11110111 I!
b11110101 J!
b11110100 K!
b11101100 L!
b11101011 M!
b11101010 N!
b11101000 O!
b11100110 P!
b11100010 Q!
#1
18!
#2
08!
#3
18!
#4
08!
09!
1:!
#5
18!
#6
08!
1;!
1<!
b00000001 =!
b1100001001010101 >!
1@!
b11111111 F!
b11111011 G!
b11111001 H!
b11111000 I!
b11110110 J!
b11110101 K!
b11101101 L!
b11101100 M!
b11101011 N!
b11101001 O!
b11100111 P!
b11100011 Q!
#7
b0101010100000000 #
1%!
1)!
1-!
11!
b01010101 7!
18!
b0101010100000000 D!
#8
08!
0:!
0;!
0@!
#9
18!
#10
08!
#11
18!
#12
08!
1:!
#13
18!
#14
08!
1;!
0<!
b0101010100000000 ?!
1@!
#15
18!
#16
08!
#17
18!
#18
08!
0:!
0;!
b0000000000000000 ?!
0@!
#19
18!
#20
08!
#21
18!
#22
08!
1:!
#23
18!
#24
08!
1;!
1<!
b1110110110110101 >!
1@!
#25
b1011010100000000 #
1/!
01!
13!
b10110101 7!
18!
b1011010100000000 D!
#26
08!
0:!
0;!
0@!
#27
18!
#28
08!
#29
18!
#30
08!
1:!
#31
18!
#32
08!
1;!
0<!
b1011010100000000 ?!
1@!
#33
18!
#34
08!
#35
18!
#36
08!
0:!
0;!
b0000000000000000 ?!
0@!
#37
18!
#38
08!
#39
18!
#40
08!
1:!
#41
18!
#42
08!
1;!
1<!
b0101110111011110 >!
1@!
#43
b1101111000000000 #
0%!
1'!
1+!
0/!
11!
b11011110 7!
18!
b1101111000000000 D!
#44
08!
0:!
0;!
0@!
#45
18!
#46
08!
#47
18!
#48
08!
1:!
#49
18!
#50
08!
1;!
0<!
b1101111000000000 ?!
1@!
#51
18!
#52
08!
#53
18!
#54
08!
0:!
0;!
b0000000000000000 ?!
0@!
#55
18!
#56
08!
#57
18!
#58
08!
1:!
#59
18!
#60
08!
1;!
1<!
b0111010000000111 >!
1@!
#61
b0000011100000000 #
1%!
0+!
0-!
01!
03!
b00000111 7!
18!
b0000011100000000 D!
#62
08!
0:!
0;!
0@!
#63
18!
#64
08!
#65
18!
#66
08!
1:!
#67
18!
#68
08!
1;!
0<!
b0000011100000000 ?!
1@!
#69
18!
#70
08!
#71
18!
#72
08!
0:!
0;!
b0000000000000000 ?!
0@!
#73
18!
#74
08!
#75
18!
#76
08!
1:!
#77
18!
#78
08!
1;!
1<!
b00000000 =!
b0000111001100110 >!
1@!
b11111110 F!
b11111010 G!
b11111000 H!
b11110111 I!
b11110101 J!
b11110100 K!
b11101100 L!
b11101011 M!
b11101010 N!
b11101000 O!
b11100110 P!
b11100010 Q!
#79
b0000111001100110 #
1u
1w
1}
1!!
0%!
1+!
b01100110 6!
b00001110 7!
18!
b0000111001100110 D!
#80
08!
0:!
0;!
0@!
#81
18!
#82
08!
#83
18!
#84
08!
1:!
#85
18!
#86
08!
1;!
0<!
b0000111001100110 ?!
1@!
#87
18!
#88
08!
#89
18!
#90
08!
0:!
0;!
b0000000000000000 ?!
0@!
#91
18!
#92
08!
#93
18!
#94
08!
1:!
#95
18!
#96
08!
1;!
1<!
b00000010 =!
b1100001001010101 >!
1@!
b00000000 F!
b11111100 G!
b11111010 H!
b11111001 I!
b11110111 J!
b11110110 K!
b11101110 L!
b11101101 M!
b11101100 N!
b11101010 O!
b11101000 P!
b11100100 Q!
#97
b1100001001010101 $
1v
1~
1&!
b01000100 4!
b00000010 5!
18!
b0000001001000100 C!
#98
08!
0:!
0;!
0@!
#99
18!
#100
08!
#101
18!
#102
08!
1:!
#103
18!
#104
08!
1;!
0<!
b1100001001010101 ?!
1@!
#105
18!
#106
08!
#107
18!
#108
08!
0:!
0;!
b0000000000000000 ?!
0@!
#109
18!
#110
08!
#111
18!
#112
08!
1:!
#113
18!
#114
08!
1;!
1<!
b1110110110110101 >!
1@!
#115
b1110110110110101 $
1|
0~
0&!
1(!
1*!
b00100100 4!
b00001100 5!
18!
b0000110000100100 C!
#116
08!
0:!
0;!
0@!
#117
18!
#118
08!
#119
18!
#120
08!
1:!
#121
18!
#122
08!
1;!
0<!
b1110110110110101 ?!
1@!
#123
18!
#124
08!
#125
18!
#126
08!
0:!
0;!
b0000000000000000 ?!
0@!
#127
18!
#128
08!
#129
18!
#130
08!
1:!
#131
18!
#132
08!
1;!
1<!
b00000011 =!
b0101110111011110 >!
1@!
b00000001 F!
b11111101 G!
b11111011 H!
b11111010 I!
b11111000 J!
b11110111 K!
b11101111 L!
b11101110 M!
b11101101 N!
b11101011 O!
b11101001 P!
b11100101 Q!
#133
b1101111000000000 $
0v
0|
1&!
b00000000 4!
b00001110 5!
18!
b0000111000000000 C!
#134
08!
0:!
0;!
0@!
#135
18!
#136
08!
#137
18!
#138
08!
1:!
#139
18!
#140
08!
1;!
0<!
b1101111000000000 ?!
1@!
#141
18!
#142
08!
#143
18!
#144
08!
0:!
0;!
b0000000000000000 ?!
0@!
#145
18!
#146
08!
#147
18!
#148
08!
1:!
#149
18!
#150
08!
1;!
1<!
b0111010000000111 >!
1@!
#151
b0000011100000000 $
0*!
b00000110 5!
18!
b0000011000000000 C!
#152
08!
0:!
0;!
0@!
#153
18!
#154
08!
#155
18!
#156
08!
1:!
#157
18!
#158
08!
1;!
0<!
b0000011100000000 ?!
1@!
#159
18!
#160
08!
#161
18!
#162
08!
0:!
0;!
b0000000000000000 ?!
0@!
#163
18!
#164
08!
#165
18!
#166
08!
1:!
#167
18!
#168
08!
1;!
1<!
b0000111001100110 >!
1@!
#169
b0110011000000000 $
18!
#170
08!
0:!
0;!
0@!
#171
18!
#172
08!
#173
18!
#174
08!
1:!
#175
18!
#176
08!
1;!
0<!
b0110011000000000 ?!
1@!
#177
18!
#178
08!
#179
18!
#180
08!
0:!
0;!
b0000000000000000 ?!
0@!
#181
18!
#182
08!
#183
18!
#184
08!
b1100001001010101 B!
#185
b1100001001010101 :
18!
#186
08!
#187
b1100001001010101 ;
18!
#188
08!
1:!
#189
b1100001001010101 %
b1100001001010101 9
18!
#190
08!
1;!
b00000100 =!
b1100001001010101 ?!
1@!
b00000010 F!
b11111110 G!
b11111100 H!
b11111011 I!
b11111001 J!
b11111000 K!
b11110000 L!
b11101111 M!
b11101110 N!
b11101100 O!
b11101010 P!
b11100110 Q!
#191
18!
#192
08!
#193
18!
#194
08!
0:!
0;!
b0000000000000000 ?!
0@!
#195
18!
#196
08!
#197
18!
#198
08!
b1110110110110101 B!
#199
b1110110110110101 :
18!
#200
08!
#201
b1110110110110101 ;
18!
#202
08!
1:!
#203
b1110110110110101 %
b1110110110110101 9
18!
#204
08!
1;!
b1110110110110101 ?!
1@!
#205
18!
#206
08!
#207
18!
#208
08!
0:!
0;!
b0000000000000000 ?!
0@!
#209
18!
#210
08!
#211
18!
#212
08!
b0101110111011110 B!
#213
b0101110111011110 :
18!
#214
08!
#215
b0101110111011110 ;
18!
#216
08!
1:!
#217
b0101110111011110 %
b0101110111011110 9
18!
#218
08!
1;!
b0101110111011110 ?!
1@!
#219
18!
#220
08!
#221
18!
#222
08!
0:!
0;!
b0000000000000000 ?!
0@!
#223
18!
#224
08!
#225
18!
#226
08!
b0111010000000111 B!
#227
b0111010000000111 :
18!
#228
08!
#229
b0111010000000111 ;
18!
#230
08!
1:!
#231
b0111010000000111 %
b0111010000000111 9
18!
#232
08!
1;!
b0111010000000111 ?!
1@!
#233
18!
#234
08!
#235
18!
#236
08!
0:!
0;!
b0000000000000000 ?!
0@!
#237
18!
#238
08!
#239
18!
#240
08!
b0000111001100110 B!
#241
b0000111001100110 :
18!
#242
08!
#243
b0000111001100110 ;
18!
#244
08!
1:!
#245
b0000111001100110 %
b0000111001100110 9
18!
#246
08!
1;!
b0000111001100110 ?!
1@!
#247
18!
#248
08!
#249
18!
#250
08!
0:!
0;!
b0000000000000000 ?!
0@!
#251
18!
#252
08!
#253
18!
#254
08!
1:!
#255
18!
#256
08!
1;!
1<!
b00000110 =!
b1100001001010101 >!
1@!
b00000100 F!
b00000000 G!
b11111110 H!
b11111101 I!
b11111011 J!
b11111010 K!
b11110010 L!
b11110001 M!
b11110000 N!
b11101110 O!
b11101100 P!
b11101000 Q!
#257
b1100001001010101 &
0&!
0'!
b00000100 5!
b00001100 7!
18!
b0000010000000000 C!
b0000110001100110 D!
#258
08!
0:!
0;!
0@!
#259
18!
#260
08!
#261
18!
#262
08!
1:!
#263
18!
#264
08!
1;!
0<!
b1100001001010101 ?!
1@!
#265
18!
#266
08!
#267
18!
#268
08!
0:!
0;!
b0000000000000000 ?!
0@!
#269
18!
#270
08!
#271
18!
#272
08!
1:!
#273
18!
#274
08!
1;!
1<!
b00000111 =!
b1110110110110101 >!
1@!
b00000101 F!
b00000001 G!
b11111111 H!
b11111110 I!
b11111100 J!
b11111011 K!
b11110011 L!
b11110010 M!
b11110001 N!
b11101111 O!
b11101101 P!
b11101001 Q!
#275
b1011010100000000 &
1&!
1'!
0(!
0)!
b00000010 5!
b00001010 7!
18!
b0000001000000000 C!
b0000101001100110 D!
#276
08!
0:!
0;!
0@!
#277
18!
#278
08!
#279
18!
#280
08!
1:!
#281
18!
#282
08!
1;!
0<!
b1011010100000000 ?!
1@!
#283
18!
#284
08!
#285
18!
#286
08!
0:!
0;!
b0000000000000000 ?!
0@!
#287
18!
#288
08!
#289
18!
#290
08!
1:!
#291
18!
#292
08!
1;!
1<!
b00000110 =!
b0101110111011110 >!
1@!
b00000100 F!
b00000000 G!
b11111110 H!
b11111101 I!
b11111011 J!
b11111010 K!
b11110010 L!
b11110001 M!
b11110000 N!
b11101110 O!
b11101100 P!
b11101000 Q!
#293
b0101110111011110 &
18!
#294
08!
0:!
0;!
0@!
#295
18!
#296
08!
#297
18!
#298
08!
1:!
#299
18!
#300
08!
1;!
0<!
b0101110111011110 ?!
1@!
#301
18!
#302
08!
#303
18!
#304
08!
0:!
0;!
b0000000000000000 ?!
0@!
#305
18!
#306
08!
#307
18!
#308
08!
1:!
#309
18!
#310
08!
1;!
1<!
b00000111 =!
b0111010000000111 >!
1@!
b00000101 F!
b00000001 G!
b11111111 H!
b11111110 I!
b11111100 J!
b11111011 K!
b11110011 L!
b11110010 M!
b11110001 N!
b11101111 O!
b11101101 P!
b11101001 Q!
#311
b0000011100000000 &
0&!
0'!
b00000000 5!
b00001000 7!
18!
b0000000000000000 C!
b0000100001100110 D!
#312
08!
0:!
0;!
0@!
#313
18!
#314
08!
#315
18!
#316
08!
1:!
#317
18!
#318
08!
1;!
0<!
b0000011100000000 ?!
1@!
#319
18!
#320
08!
#321
18!
#322
08!
0:!
0;!
b0000000000000000 ?!
0@!
#323
18!
#324
08!
#325
18!
#326
08!
1:!
#327
18!
#328
08!
1;!
1<!
b00000110 =!
b0000111001100110 >!
1@!
b00000100 F!
b00000000 G!
b11111110 H!
b11111101 I!
b11111011 J!
b11111010 K!
b11110010 L!
b11110001 M!
b11110000 N!
b11101110 O!
b11101100 P!
b11101000 Q!
#329
b0000111001100110 &
18!
#330
08!
0:!
0;!
0@!
#331
18!
#332
08!
#333
18!
#334
08!
1:!
#335
18!
#336
08!
1;!
0<!
b0000111001100110 ?!
1@!
#337
18!
#338
08!
#339
18!
#340
08!
0:!
0;!
b0000000000000000 ?!
0@!
#341
18!
#342
08!
#343
18!
#344
08!
1:!
#345
18!
#346
08!
1;!
1<!
b00100000 =!
b0000000000001111 >!
1@!
1A!
b00011110 F!
b00011010 G!
b00011000 H!
b00010111 I!
b00010101 J!
b00010100 K!
b00001100 L!
b00001011 M!
b00001010 N!
b00001000 O!
b00000110 P!
b00000010 Q!
#347
18!
#348
08!
0:!
0;!
0@!
#349
18!
#350
08!
#351
18!
#352
08!
#353
18!
#354
08!
#355
18!
#356
08!
1:!
#357
18!
#358
08!
1;!
0<!
1@!
#359
18!
#360
08!
#361
18!
#362
08!
0:!
0;!
0@!
#363
18!
#364
08!
#365
18!
#366
08!
#367
18!
#368
08!
1:!
#369
18!
#370
08!
1;!
1<!
b00000110 =!
b0000000000000000 >!
1@!
0A!
b00000100 F!
b00000000 G!
b11111110 H!
b11111101 I!
b11111011 J!
b11111010 K!
b11110010 L!
b11110001 M!
b11110000 N!
b11101110 O!
b11101100 P!
b11101000 Q!
#371
b0000000000000000 &
1&!
1'!
1(!
1)!
b00000110 5!
b00001110 7!
18!
b0000011000000000 C!
b0000111001100110 D!
#372
08!
0:!
0;!
0@!
#373
18!
#374
08!
#375
18!
#376
08!
1:!
#377
18!
#378
08!
1;!
b00000010 =!
b1100001001010101 >!
1@!
b00000000 F!
b11111100 G!
b11111010 H!
b11111001 I!
b11110111 J!
b11110110 K!
b11101110 L!
b11101101 M!
b11101100 N!
b11101010 O!
b11101000 P!
b11100100 Q!
#379
b1100001001010101 $
1v
1~
0(!
b01000100 4!
b00000010 5!
18!
b0000001001000100 C!
#380
08!
0:!
0;!
0@!
#381
18!
#382
08!
#383
18!
#384
08!
1:!
#385
18!
#386
08!
1;!
b00000000 =!
b0110001110100110 >!
1@!
b11111110 F!
b11111010 G!
b11111000 H!
b11110111 I!
b11110101 J!
b11110100 K!
b11101100 L!
b11101011 M!
b11101010 N!
b11101000 O!
b11100110 P!
b11100010 Q!
#387
b0110001110100110 #
0~
0!!
1#!
1%!
0)!
0+!
1/!
10!
11!
b00000100 4!
b01000010 5!
b10100110 6!
b01100011 7!
18!
b0100001000000100 C!
b0110001110100110 D!
#388
08!
0:!
0;!
0@!
#389
18!
#390
08!
#391
18!
#392
08!
1:!
#393
18!
#394
08!
1;!
b00000110 =!
b0000000000000000 >!
1@!
b00000100 F!
b00000000 G!
b11111110 H!
b11111101 I!
b11111011 J!
b11111010 K!
b11110010 L!
b11110001 M!
b11110000 N!
b11101110 O!
b11101100 P!
b11101000 Q!
#395
18!
#396
08!
0:!
0;!
0@!
#397
18!
#398
08!
#399
18!
#400
08!
1:!
#401
18!
#402
08!
1;!
b00000010 =!
b1110110110110101 >!
1@!
b00000000 F!
b11111100 G!
b11111010 H!
b11111001 I!
b11110111 J!
b11110110 K!
b11101110 L!
b11101101 M!
b11101100 N!
b11101010 O!
b11101000 P!
b11100100 Q!
#403
b1110110110110101 $
1|
1"!
1$!
0&!
1.!
b10100100 4!
b01100001 5!
18!
b0110000110100100 C!
#404
08!
0:!
0;!
0@!
#405
18!
#406
08!
#407
18!
#408
08!
1:!
#409
18!
#410
08!
1;!
b00000000 =!
b1010100011101010 >!
1@!
b11111110 F!
b11111010 G!
b11111000 H!
b11110111 I!
b11110101 J!
b11110100 K!
b11101100 L!
b11101011 M!
b11101010 N!
b11101000 O!
b11100110 P!
b11100010 Q!
#411
b1010100011101010 #
0v
0w
1y
1!!
0$!
0%!
0'!
1*!
1+!
00!
01!
12!
13!
b10100000 4!
b10101000 5!
b11101010 6!
b10101000 7!
18!
b1010100010100000 C!
b1010100011101010 D!
#412
08!
0:!
0;!
0@!
#413
18!
#414
08!
#415
18!
#416
08!
1:!
#417
18!
#418
08!
1;!
b00000110 =!
b0000000000000000 >!
1@!
b00000100 F!
b00000000 G!
b11111110 H!
b11111101 I!
b11111011 J!
b11111010 K!
b11110010 L!
b11110001 M!
b11110000 N!
b11101110 O!
b11101100 P!
b11101000 Q!
#419
18!
#420
08!
0:!
0;!
0@!
#421
18!
#422
08!
#423
18!
#424
08!
1:!
#425
18!
#426
08!
1;!
b00000010 =!
b0101110111011110 >!
1@!
b00000000 F!
b11111100 G!
b11111010 H!
b11111001 I!
b11110111 J!
b11110110 K!
b11101110 L!
b11101101 M!
b11101100 N!
b11101010 O!
b11101000 P!
b11100100 Q!
#427
b0101110111011110 $
1t
1x
0|
1~
0.!
02!
b11001010 4!
b00001000 5!
18!
b0000100011001010 C!
#428
08!
0:!
0;!
0@!
#429
18!
#430
08!
#431
18!
#432
08!
1:!
#433
18!
#434
08!
1;!
b00000000 =!
b0110010110110101 >!
1@!
b11111110 F!
b11111010 G!
b11111000 H!
b11110111 I!
b11110101 J!
b11110100 K!
b11101100 L!
b11101011 M!
b11101010 N!
b11101000 O!
b11100110 P!
b11100010 Q!
#435
b0110010110110101 #
1s
0t
0u
1v
1w
0x
0y
1z
1{
0~
0!!
1$!
1%!
1(!
1)!
0*!
0+!
10!
11!
03!
b10010100 4!
b01000101 5!
b10110101 6!
b01100101 7!
18!
b0100010110010100 C!
b0110010110110101 D!
#436
08!
0:!
0;!
0@!
#437
18!
#438
08!
#439
18!
#440
08!
1:!
#441
18!
#442
08!
1;!
b00000110 =!
b0000000000000000 >!
1@!
b00000100 F!
b00000000 G!
b11111110 H!
b11111101 I!
b11111011 J!
b11111010 K!
b11110010 L!
b11110001 M!
b11110000 N!
b11101110 O!
b11101100 P!
b11101000 Q!
#443
18!
#444
08!
0:!
0;!
0@!
#445
18!
#446
08!
#447
18!
#448
08!
1:!
#449
18!
#450
08!
1;!
b00000010 =!
b0111010000000111 >!
1@!
b00000000 F!
b11111100 G!
b11111010 H!
b11111001 I!
b11110111 J!
b11110110 K!
b11101110 L!
b11101101 M!
b11101100 N!
b11101010 O!
b11101000 P!
b11100100 Q!
#451
b0111010000000111 $
1r
0z
0"!
0$!
1.!
b00000101 4!
b01100100 5!
18!
b0110010000000101 C!
#452
08!
0:!
0;!
0@!
#453
18!
#454
08!
#455
18!
#456
08!
1:!
#457
18!
#458
08!
1;!
b00000000 =!
b0001011101011101 >!
1@!
b11111110 F!
b11111010 G!
b11111000 H!
b11110111 I!
b11110101 J!
b11110100 K!
b11101100 L!
b11101011 M!
b11101010 N!
b11101000 O!
b11100110 P!
b11100010 Q!
#459
b0001011101011101 #
1y
0}
1!!
0#!
1'!
1,!
1-!
0.!
0/!
00!
01!
b00010100 5!
b01011101 6!
b00010111 7!
18!
b0001010000000101 C!
b0001011101011101 D!
#460
08!
0:!
0;!
0@!
#461
18!
#462
08!
#463
18!
#464
08!
1:!
#465
18!
#466
08!
1;!
b00000110 =!
b0000000000000000 >!
1@!
b00000100 F!
b00000000 G!
b11111110 H!
b11111101 I!
b11111011 J!
b11111010 K!
b11110010 L!
b11110001 M!
b11110000 N!
b11101110 O!
b11101100 P!
b11101000 Q!
#467
18!
#468
08!
0:!
0;!
0@!
#469
18!
#470
08!
#471
18!
#472
08!
1:!
#473
18!
#474
08!
1;!
b00000010 =!
b0000111001100110 >!
1@!
b00000000 F!
b11111100 G!
b11111010 H!
b11111001 I!
b11110111 J!
b11110110 K!
b11101110 L!
b11101101 M!
b11101100 N!
b11101010 O!
b11101000 P!
b11100100 Q!
#475
b0000111001100110 $
0r
1~
1&!
0,!
b01000100 4!
b00000110 5!
18!
b0000011001000100 C!
#476
08!
0:!
0;!
0@!
#477
18!
#478
08!
#479
18!
#480
08!
1:!
#481
18!
#482
08!
1;!
b00000000 =!
b1100110111011111 >!
1@!
b11111110 F!
b11111010 G!
b11111000 H!
b11110111 I!
b11110101 J!
b11110100 K!
b11101100 L!
b11101011 M!
b11101010 N!
b11101000 O!
b11100110 P!
b11100010 Q!
#483
b1100110111011111 #
1t
1u
1#!
0&!
0'!
1*!
1+!
0-!
11!
13!
b01000110 4!
b00001100 5!
b11011111 6!
b11001101 7!
18!
b0000110001000110 C!
b1100110111011111 D!
#484
08!
0:!
0;!
0@!
#485
18!
#486
08!
#487
18!
#488
08!
1:!
#489
18!
#490
08!
1;!
b00000110 =!
b1111111111111111 >!
1@!
b00000100 F!
b00000000 G!
b11111110 H!
b11111101 I!
b11111011 J!
b11111010 K!
b11110010 L!
b11110001 M!
b11110000 N!
b11101110 O!
b11101100 P!
b11101000 Q!
#491
b1111111111111111 &
0t
0u
0v
0w
0~
0!!
0(!
0)!
0*!
0+!
b00000000 4!
b00000000 5!
b10011001 6!
b11000001 7!
18!
b0000000000000000 C!
b1100000110011001 D!
#492
08!
0:!
0;!
0@!
#493
18!
#494
08!
#495
18!
#496
08!
1:!
#497
18!
#498
08!
1;!
b00000010 =!
b1100001001010101 >!
1@!
b00000000 F!
b11111100 G!
b11111010 H!
b11111001 I!
b11110111 J!
b11110110 K!
b11101110 L!
b11101101 M!
b11101100 N!
b11101010 O!
b11101000 P!
b11100100 Q!
#499
b1100001001010101 $
0s
1u
0{
1)!
1+!
01!
03!
b10001010 6!
b00001101 7!
18!
b0000110110001010 D!
#500
08!
0:!
0;!
0@!
#501
18!
#502
08!
#503
18!
#504
08!
1:!
#505
18!
