test_run_dir/GPIO_should_work/GPIO.vcd
$date
2024-09-23T00:41+0000
$end
$version
0.2
$end
$comment

$end
$timescale 1ns  $end
$scope module GPIO $end
 $var wire 32 ! io_apb_PADDR $end
 $var wire 32 " INPUT $end
 $var wire 32 # io_pins_GPIO_OE $end
 $var wire 1 $ io_apb_PENABLE $end
 $var wire 32 % io_apb_PRDATA $end
 $var wire 32 & io_apb_PWDATA $end
 $var wire 32 ' OUTPUT $end
 $var wire 32 ( DIRECTION $end
 $var wire 1 ) io_apb_PREADY $end
 $var wire 1 * io_apb_PWRITE $end
 $var wire 1 + clock $end
 $var wire 32 , io_pins_GPIO_I $end
 $var wire 32 - io_pins_GPIO_O $end
 $var wire 1 . io_apb_PSLVERR $end
 $var wire 1 / reset $end
 $var wire 1 0 io_apb_PSEL $end
$upscope $end
$enddefinitions $end
$dumpvars
00
b00000000000000000000000000000000 -
b00000000000000000000000000000000 ,
b00000000000000000000000000000000 '
b00000000000000000000000000000000 &
b00000000000000000000000000000000 (
b00000000000000000000000000000000 #
b00000000000000000000000000000000 "
b00000000000000000000000000000000 %
b00000000000000000000000000000000 !
0$
0)
0*
0+
0.
0/
$end
#0
1/
#1
1+
#6
10
1$
b00000000000000000000000000001010 &
1)
1*
0+
0/
#11
b00000000000000000000000000001010 '
1+
#16
00
0$
0)
0+
#21
1+
#26
0+
#31
1+
#36
10
1$
b00000000000000000000000000001010 %
1)
0*
0+
#41
1+
#46
0+
#51
1+
#56
00
0$
b00000000000000000000000000000000 %
0)
0+
#61
1+
#66
0+
#71
1+
#76
10
b00000000000000000000000000000100 !
1$
b00000000000000000000000000000000 %
b00000000000000000000000000001111 &
1)
1*
0+
#81
b00000000000000000000000000001111 #
b00000000000000000000000000001111 (
1+
b00000000000000000000000000001010 -
#86
00
0$
0)
0+
#91
1+
#96
0+
#101
1+
#106
10
b00000000000000000000000000000000 !
1$
b00000000000000000000000000001100 &
1)
0+
#111
b00000000000000000000000000001100 '
1+
b00000000000000000000000000001100 -
#116
00
0$
0)
0+
#121
1+
#126
0+
#131
1+
#136
10
b00000000000000000000000000001000 !
1$
b00000000000000000000000000000000 %
1)
0*
0+
b00000000000000000000000000001010 ,
#141
b00000000000000000000000000001010 "
b00000000000000000000000000001010 %
1+
#146
0+
#151
1+
#156
00
0$
b00000000000000000000000000000000 %
0)
0+
#161
1+
#166
0+
#171
1+
#176
b00000000000000000000000000001010 !
0+
1.
#181
1+
#186
b00000000000000000000000000000000 !
b00000000000000000000000000000000 &
0+
b00000000000000000000000000000000 ,
