test_run_dir/GPIO_should_work/GPIO.vcd
$date
2024-09-27T22:39+0000
$end
$version
0.2
$end
$comment

$end
$timescale 1ns  $end
$scope module GPIO $end
 $var wire 16 ! io_pins_GPIO_O_lo $end
 $var wire 2 " io_pins_GPIO_O_hi_lo_lo_hi $end
 $var wire 2 # io_pins_GPIO_O_hi_lo_hi_hi $end
 $var wire 1 $ printf_13 $end
 $var wire 1 % printf_14 $end
 $var wire 1 & printf_10 $end
 $var wire 1 ' printf_11 $end
 $var wire 1 ( printf_12 $end
 $var wire 4 ) io_pins_GPIO_OE_hi_lo_lo $end
 $var wire 2 * io_pins_GPIO_OE_hi_lo_lo_lo $end
 $var wire 2 + io_pins_GPIO_OE_hi_lo_hi_hi $end
 $var wire 16 , io_pins_GPIO_O_hi $end
 $var wire 2 - io_pins_GPIO_OE_hi_lo_lo_hi $end
 $var wire 2 . io_pins_GPIO_OE_hi_lo_hi_lo $end
 $var wire 1 / GPIO_OE_VEC_27 $end
 $var wire 1 0 GPIO_OE_VEC_26 $end
 $var wire 1 1 GPIO_OE_VEC_29 $end
 $var wire 1 2 GPIO_OE_VEC_28 $end
 $var wire 1 3 GPIO_OE_VEC_23 $end
 $var wire 1 4 GPIO_OE_VEC_22 $end
 $var wire 1 5 GPIO_OE_VEC_25 $end
 $var wire 1 6 GPIO_OE_VEC_24 $end
 $var wire 1 7 GPIO_OE_VEC_21 $end
 $var wire 1 8 GPIO_OE_VEC_20 $end
 $var wire 1 9 GPIO_OE_VEC_30 $end
 $var wire 1 : GPIO_OE_VEC_31 $end
 $var wire 1 ; GPIO_OE_VEC_19 $end
 $var wire 1 < GPIO_OE_VEC_16 $end
 $var wire 1 = GPIO_OE_VEC_15 $end
 $var wire 1 > GPIO_OE_VEC_18 $end
 $var wire 1 ? GPIO_OE_VEC_17 $end
 $var wire 1 @ GPIO_OE_VEC_12 $end
 $var wire 1 A GPIO_OE_VEC_11 $end
 $var wire 1 B GPIO_OE_VEC_14 $end
 $var wire 1 C GPIO_OE_VEC_13 $end
 $var wire 1 D GPIO_OE_VEC_10 $end
 $var wire 4 E io_pins_GPIO_O_hi_hi_hi $end
 $var wire 4 F io_pins_GPIO_OE_hi_hi_hi $end
 $var wire 4 G io_pins_GPIO_OE_lo_hi_hi $end
 $var wire 1 H atomicOperationTruthTable_0_1 $end
 $var wire 1 I atomicOperationTruthTable_0_0 $end
 $var wire 2 J io_pins_GPIO_O_hi_lo_lo_lo $end
 $var wire 2 K io_pins_GPIO_O_hi_lo_hi_lo $end
 $var wire 2 L io_pins_GPIO_O_hi_hi_lo_lo $end
 $var wire 2 M io_pins_GPIO_O_hi_hi_hi_lo $end
 $var wire 1 N clock $end
 $var wire 4 O io_pins_GPIO_O_hi_hi_lo $end
 $var wire 4 P io_pins_GPIO_O_hi_lo_hi $end
 $var wire 4 Q io_pins_GPIO_OE_hi_lo_hi $end
 $var wire 4 R io_pins_GPIO_OE_hi_hi_lo $end
 $var wire 32 S io_apb_PWDATA $end
 $var wire 4 T io_pins_GPIO_OE_lo_hi_lo $end
 $var wire 4 U io_pins_GPIO_OE_lo_lo_hi $end
 $var wire 2 V io_pins_GPIO_O_hi_hi_lo_hi $end
 $var wire 2 W io_pins_GPIO_OE_hi_hi_lo_lo $end
 $var wire 2 X io_pins_GPIO_O_hi_hi_hi_hi $end
 $var wire 32 Y io_apb_PADDR $end
 $var wire 4 Z io_pins_GPIO_O_hi_lo_lo $end
 $var wire 8 [ OUTPUT_hi_lo $end
 $var wire 2 \ io_pins_GPIO_O_lo_hi_hi_hi $end
 $var wire 4 ] io_pins_GPIO_OE_lo_lo_lo $end
 $var wire 2 ^ io_pins_GPIO_OE_hi_hi_lo_hi $end
 $var wire 1 _ output_inner_16 $end
 $var wire 1 ` output_inner_17 $end
 $var wire 1 a output_inner_18 $end
 $var wire 1 b output_inner_19 $end
 $var wire 1 c output_inner_12 $end
 $var wire 1 d output_inner_13 $end
 $var wire 1 e output_inner_14 $end
 $var wire 1 f output_inner_15 $end
 $var wire 1 g output_inner_10 $end
 $var wire 1 h output_inner_11 $end
 $var wire 8 i OUTPUT_lo_hi $end
 $var wire 32 j io_pins_GPIO_I $end
 $var wire 32 k io_pins_GPIO_O $end
 $var wire 1 l io_apb_PSLVERR $end
 $var wire 1 m output_inner_27 $end
 $var wire 1 n output_inner_28 $end
 $var wire 1 o output_inner_29 $end
 $var wire 1 p output_inner_23 $end
 $var wire 1 q output_inner_24 $end
 $var wire 1 r output_inner_25 $end
 $var wire 1 s output_inner_26 $end
 $var wire 1 t output_inner_20 $end
 $var wire 1 u output_inner_21 $end
 $var wire 1 v output_inner_22 $end
 $var wire 8 w OUTPUT_hi_hi $end
 $var wire 2 x io_pins_GPIO_O_lo_hi_hi_lo $end
 $var wire 2 y io_pins_GPIO_O_lo_hi_lo_hi $end
 $var wire 1 z output_inner_30 $end
 $var wire 1 { output_inner_31 $end
 $var wire 2 | io_pins_GPIO_OE_hi_hi_hi_lo $end
 $var wire 2 } OUTPUT_lo_hi_hi_hi $end
 $var wire 2 ~ OUTPUT_lo_hi_lo_hi $end
 $var wire 1 "! reset $end
 $var wire 2 "" OUTPUT_hi_hi_lo_hi $end
 $var wire 16 "# io_pins_GPIO_OE_lo $end
 $var wire 2 "$ OUTPUT_hi_hi_hi_hi $end
 $var wire 32 "% regs_ATOMIC_MASK $end
 $var wire 32 "& io_pins_GPIO_OE $end
 $var wire 1 "' io_apb_PENABLE $end
 $var wire 32 "( regs_OUTPUT $end
 $var wire 1 ") GPIO_O_VEC_0 $end
 $var wire 1 "* GPIO_O_VEC_1 $end
 $var wire 1 "+ GPIO_O_VEC_2 $end
 $var wire 1 ", GPIO_O_VEC_3 $end
 $var wire 1 "- GPIO_O_VEC_4 $end
 $var wire 1 ". GPIO_O_VEC_5 $end
 $var wire 1 "/ GPIO_O_VEC_6 $end
 $var wire 1 "0 GPIO_O_VEC_7 $end
 $var wire 1 "1 GPIO_O_VEC_8 $end
 $var wire 1 "2 GPIO_O_VEC_9 $end
 $var wire 2 "3 OUTPUT_lo_hi_lo_lo $end
 $var wire 8 "4 OUTPUT_lo_lo $end
 $var wire 2 "5 OUTPUT_lo_hi_hi_lo $end
 $var wire 2 "6 io_pins_GPIO_OE_lo_lo_hi_hi $end
 $var wire 2 "7 io_pins_GPIO_OE_lo_lo_lo_hi $end
 $var wire 1 "8 output_inner_8 $end
 $var wire 1 "9 output_inner_7 $end
 $var wire 1 ": output_inner_9 $end
 $var wire 1 "; output_inner_4 $end
 $var wire 1 "< output_inner_3 $end
 $var wire 1 "= output_inner_6 $end
 $var wire 1 "> output_inner_5 $end
 $var wire 1 "? output_inner_0 $end
 $var wire 1 "@ output_inner_2 $end
 $var wire 1 "A output_inner_1 $end
 $var wire 4 "B io_pins_GPIO_O_lo_lo_lo $end
 $var wire 2 "C io_pins_GPIO_O_lo_lo_lo_hi $end
 $var wire 4 "D OUTPUT_lo_lo_hi $end
 $var wire 1 "E io_apb_PREADY $end
 $var wire 2 "F OUTPUT_hi_hi_lo_lo $end
 $var wire 16 "G io_pins_GPIO_OE_hi $end
 $var wire 2 "H OUTPUT_hi_hi_hi_lo $end
 $var wire 32 "I regs_DIRECTION $end
 $var wire 4 "J OUTPUT_lo_hi_hi $end
 $var wire 4 "K OUTPUT_hi_lo_lo $end
 $var wire 2 "L io_pins_GPIO_O_lo_lo_lo_lo $end
 $var wire 32 "M regs_INPUT $end
 $var wire 4 "N io_pins_GPIO_O_lo_hi_hi $end
 $var wire 4 "O OUTPUT_lo_hi_lo $end
 $var wire 2 "P io_pins_GPIO_O_lo_hi_lo_lo $end
 $var wire 4 "Q OUTPUT_hi_hi_lo $end
 $var wire 2 "R io_pins_GPIO_OE_lo_hi_hi_lo $end
 $var wire 2 "S io_pins_GPIO_OE_lo_hi_lo_lo $end
 $var wire 2 "T io_pins_GPIO_OE_hi_hi_hi_hi $end
 $var wire 2 "U io_pins_GPIO_OE_lo_lo_lo_lo $end
 $var wire 1 "V atomicOperationTruthTable_1_0 $end
 $var wire 1 "W atomicOperationTruthTable_1_1 $end
 $var wire 4 "X io_pins_GPIO_O_lo_hi_lo $end
 $var wire 4 "Y io_pins_GPIO_O_lo_lo_hi $end
 $var wire 4 "Z OUTPUT_lo_lo_lo $end
 $var wire 2 "[ io_pins_GPIO_OE_lo_lo_hi_lo $end
 $var wire 4 "\ regs_ATOMIC_OPERATION $end
 $var wire 2 "] io_pins_GPIO_OE_lo_hi_lo_hi $end
 $var wire 2 "^ io_pins_GPIO_OE_lo_hi_hi_hi $end
 $var wire 32 "_ io_apb_PRDATA $end
 $var wire 8 "` io_pins_GPIO_OE_lo_lo $end
 $var wire 2 "a OUTPUT_lo_lo_lo_lo $end
 $var wire 2 "b OUTPUT_lo_lo_hi_lo $end
 $var wire 16 "c OUTPUT_lo $end
 $var wire 1 "d GPIO_OE_VEC_0 $end
 $var wire 1 "e GPIO_OE_VEC_1 $end
 $var wire 1 "f GPIO_OE_VEC_2 $end
 $var wire 1 "g GPIO_OE_VEC_3 $end
 $var wire 1 "h GPIO_OE_VEC_8 $end
 $var wire 1 "i GPIO_OE_VEC_9 $end
 $var wire 1 "j GPIO_OE_VEC_4 $end
 $var wire 1 "k GPIO_OE_VEC_5 $end
 $var wire 1 "l GPIO_OE_VEC_6 $end
 $var wire 1 "m GPIO_OE_VEC_7 $end
 $var wire 8 "n io_pins_GPIO_O_hi_hi $end
 $var wire 4 "o OUTPUT_hi_hi_hi $end
 $var wire 1 "p GPIO_O_VEC_18 $end
 $var wire 1 "q GPIO_O_VEC_19 $end
 $var wire 1 "r GPIO_O_VEC_16 $end
 $var wire 1 "s GPIO_O_VEC_17 $end
 $var wire 4 "t OUTPUT_hi_lo_hi $end
 $var wire 1 "u GPIO_O_VEC_10 $end
 $var wire 1 "v GPIO_O_VEC_11 $end
 $var wire 1 "w GPIO_O_VEC_14 $end
 $var wire 1 "x GPIO_O_VEC_15 $end
 $var wire 1 "y GPIO_O_VEC_12 $end
 $var wire 1 "z GPIO_O_VEC_13 $end
 $var wire 8 "{ io_pins_GPIO_OE_hi_hi $end
 $var wire 1 "| printf_9 $end
 $var wire 1 "} printf_8 $end
 $var wire 1 "~ printf_7 $end
 $var wire 2 #! OUTPUT_hi_lo_lo_lo $end
 $var wire 1 #" io_apb_PWRITE $end
 $var wire 1 ## printf_6 $end
 $var wire 2 #$ OUTPUT_hi_lo_hi_lo $end
 $var wire 1 #% printf_1 $end
 $var wire 1 #& printf_5 $end
 $var wire 1 #' printf_4 $end
 $var wire 1 #( printf_3 $end
 $var wire 1 #) printf_2 $end
 $var wire 2 #* OUTPUT_lo_lo_hi_hi $end
 $var wire 1 #+ printf $end
 $var wire 1 #, GPIO_O_VEC_30 $end
 $var wire 1 #- GPIO_O_VEC_31 $end
 $var wire 1 #. GPIO_O_VEC_29 $end
 $var wire 1 #/ GPIO_O_VEC_27 $end
 $var wire 1 #0 GPIO_O_VEC_28 $end
 $var wire 1 #1 GPIO_O_VEC_21 $end
 $var wire 1 #2 GPIO_O_VEC_22 $end
 $var wire 1 #3 GPIO_O_VEC_20 $end
 $var wire 1 #4 GPIO_O_VEC_25 $end
 $var wire 1 #5 GPIO_O_VEC_26 $end
 $var wire 1 #6 GPIO_O_VEC_23 $end
 $var wire 1 #7 GPIO_O_VEC_24 $end
 $var wire 32 #8 regs_MODE $end
 $var wire 2 #9 io_pins_GPIO_O_lo_lo_hi_lo $end
 $var wire 8 #: io_pins_GPIO_O_lo_lo $end
 $var wire 2 #; OUTPUT_hi_lo_lo_hi $end
 $var wire 2 #< OUTPUT_hi_lo_hi_hi $end
 $var wire 16 #= OUTPUT_hi $end
 $var wire 1 #> io_apb_PSEL $end
 $var wire 2 #? OUTPUT_lo_lo_lo_hi $end
 $var wire 2 #@ io_pins_GPIO_O_lo_lo_hi_hi $end
 $var wire 8 #A io_pins_GPIO_O_lo_hi $end
 $var wire 8 #B io_pins_GPIO_OE_lo_hi $end
 $var wire 1 #C regs_ATOMIC_SET $end
 $var wire 8 #D io_pins_GPIO_OE_hi_lo $end
 $var wire 8 #E io_pins_GPIO_O_hi_lo $end
$upscope $end
$enddefinitions $end
$dumpvars
b0000000000000000 !
00
01
02
03
04
05
06
b00000000 i
07
08
09
0:
b0000 "o
0;
b00 .
0<
b0000000000000000 ,
0=
0>
0?
0@
0A
b0000 "t
0B
0C
0D
b00 -
b00000000 w
b00 +
b00 *
0H
0I
0N
b00 #
b00 "
b0000 )
0_
b0000000000000000 "#
0`
b00000000 [
0a
0b
0c
0d
0e
0f
0g
0h
0l
0m
0n
0o
0p
0q
0r
0s
0t
0u
0v
0z
0{
b0000000000000000 #=
0"!
b0000000000000000 "c
b0000000000000000 "G
0"'
0")
0"*
0"+
0",
0"-
0".
0"/
0"0
0"1
0"2
b00 #9
b00 "[
b00 #<
b00 #;
b00000000 #E
b00 "U
b00 "T
0"8
0"9
b00 "a
0":
0";
b00000000 "n
0"<
b00 "b
0"=
b00 "]
0">
0"?
b00 #@
0"@
b00 "^
b00 #?
0"A
0#"
b00 #*
0##
b00 "H
0#%
0"E
0#&
0#'
b00000000 "{
0#(
0#)
b00 "F
0#+
b00 "P
0#,
b00 "S
0#-
b00 "R
0#.
0#/
b00 "L
0#0
0#1
0#2
0#3
0#4
0#5
0#6
b00 "5
0"V
0#7
0"W
b00 "7
b00 "6
b00 #!
b00 "C
b00 #$
0#>
0#C
0"d
0"e
0"f
b00 "$
0"g
0"h
0"i
0"j
0"k
b00 "3
0"l
0"m
b00 ~
0"p
0"q
0"r
b00 y
0"s
b00 x
0"u
0"v
b00 }
0"w
b00 |
0"x
0"y
0"z
0"|
b00 ""
0"}
0"~
b00 ^
b00 X
b00 W
b00 V
b00 \
b00 M
b00 L
b00 K
b00 J
b00000000000000000000000000000000 "&
b00000000000000000000000000000000 "%
b00000000000000000000000000000000 "(
b00000000000000000000000000000000 "M
b00000000000000000000000000000000 "I
b00000000000000000000000000000000 "_
b00000000000000000000000000000000 #8
b00000000 "4
b00000000 #:
b00000000 #D
b00000000 #B
b00000000 "`
b00000000 #A
b00000000000000000000000000000000 k
b0000 E
b00000000000000000000000000000000 j
b0000 F
b0000 G
b0000 T
b0000 U
b0000 R
b0000 P
b0000 Q
b0000 O
b0000 ]
b0000 Z
b0000 "B
b0000 "D
b0000 "K
b0000 "J
b0000 "O
b0000 "N
b0000 "Q
0$
b0000 "Y
0%
b0000 "X
0&
b00000000000000000000000000000000 Y
0'
b0000 "Z
0(
b00000000000000000000000000000000 S
b0000 "\
0/
$end
#0
1"!
#1
1N
#6
1#>
0N
0"!
#11
1N
#16
b00000000000000000000000000011110 S
1"E
1"'
b00000000000000000000000000000010 Y
0N
1#"
#21
b0000000000011110 "#
b00000000000000000000000000011110 "&
b00000000000000000000000000011110 "I
1N
1/
11
12
b10 "U
b0001 U
b11 "7
19
b01 "[
b1110 ]
b00011110 "`
#26
0"E
0"'
0#>
0N
#31
1N
#36
0N
#41
1N
#46
1#>
0N
#51
1N
#56
1"E
1"'
b00000000000000000000000000011110 "_
0N
0#"
#61
1N
#66
0N
#71
1N
#76
0"E
0"'
0#>
b00000000000000000000000000000000 "_
0N
#81
1N
#86
0N
#91
1N
#96
1#>
0N
#101
1N
#106
b00000000000000000000000000011111 S
1"E
1"'
b00000000000000000000000000000001 Y
b00000000000000000000000000000000 "_
0N
1#"
#111
b0000000000011111 "#
b11 "U
b00000000000000000000000000011111 "&
b00000000000000000000000000011111 "I
1:
b1111 ]
1N
b00011111 "`
#116
0"E
0"'
0#>
0N
#121
1N
#126
0N
#131
1N
#136
1#>
0N
#141
1N
#146
1"E
1"'
b00000000000000000000000000011111 "_
0N
0#"
#151
1N
#156
0N
#161
1N
#166
0"E
0"'
0#>
b00000000000000000000000000000000 "_
0N
#171
1N
#176
0N
#181
1N
#186
1#>
0N
#191
1N
#196
b00000000000000000000000000011110 S
1"E
1"'
b00000000000000000000000000000000 Y
b00000000000000000000000000000000 "_
0N
1#"
#201
b0000000000011110 "#
b10 "U
b00000000000000000000000000011110 "&
b00000000000000000000000000011110 "I
0:
b1110 ]
1N
b00011110 "`
#206
0"E
0"'
0#>
0N
#211
1N
#216
0N
#221
1N
#226
1#>
0N
#231
1N
#236
1"E
1"'
b00000000000000000000000000011110 "_
0N
0#"
#241
1N
#246
0N
#251
1N
#256
0"E
0"'
0#>
b00000000000000000000000000000000 "_
0N
#261
1N
#266
0N
#271
1N
#276
b00000000000000000000000000010000 j
1#>
0N
#281
b00000000000000000000000000010000 "M
1N
#286
1"E
1"'
b00000000000000000000000000001000 Y
1l
b00000000000000000000000000010000 "_
0N
#291
1N
#296
0N
#301
1N
#306
0"E
0"'
0#>
b00000000000000000000000000000000 "_
0N
#311
1N
#316
0N
#321
1N
#326
b00000000000000000000000000001010 Y
0N
#331
1N
#336
1#>
0N
#341
1N
#346
b00000000000000000000000000000100 S
1"E
1"'
b00000000000000000000000000010000 Y
b00000000000000000000000000000000 "_
0N
1#"
#351
1"W
b0100 "\
1N
#356
0"E
0"'
0#>
0N
#361
1N
#366
0N
#371
1N
#376
1#>
0N
#381
1N
#386
b00000000000000000000000000001100 S
1"E
1"'
b00000000000000000000000000010001 Y
0N
#391
b00000000000000000000000000001100 "%
1N
#396
0"E
0"'
0#>
0N
#401
1N
#406
0N
#411
1N
#416
1#>
0N
#421
1N
#426
b00000000000000000000000000001111 S
1"E
1"'
b00000000000000000000000000000100 Y
0N
#431
b0000000000010000 "#
b00000000000000000000000000010000 "&
b00000000000000000000000000001111 "(
b11 "H
b0011 "o
1N
01
02
b00 "U
b00 "7
b00110000 w
09
1"<
b0011000000000000 #=
b0000 ]
1"@
b00010000 "`
#436
0"E
0"'
0#>
0N
#441
1N
#446
0N
#451
1N
#456
1#>
0N
#461
1N
#466
1"E
1"'
b00000000000000000000000000001111 "_
0N
0#"
#471
1N
#476
0N
#481
1N
#486
0"E
0"'
0#>
b00000000000000000000000000000000 "_
0N
#491
1N
#496
0N
#501
1N
#506
1#>
0N
#511
1N
#516
b00000000000000000000000000000001 S
1"E
1"'
b00000000000000000000000000010101 Y
b00000000000000000000000000000000 "_
0N
1#"
#521
1#C
1N
#526
0"E
0"'
0#>
0N
#531
b0000000000010010 "#
b10 "U
b00000000000000000000000000010010 "&
b00000000000000000000000000001100 "(
19
b0010 ]
1N
b00010010 "`
#536
0N
#541
1N
#546
1#>
0N
#551
1N
#556
1"E
1"'
b00000000000000000000000000000100 Y
b00000000000000000000000000001100 "_
0N
0#"
#561
1N
#566
0N
#571
1N
#576
0"E
0"'
0#>
b00000000000000000000000000000000 "_
0N
#581
1N
#586
0N
#591
1N
#596
b00000000000000000000000000000000 S
b00000000000000000000000000000000 Y
b00000000000000000000000000000000 j
0N
